<?xml version="1.0" encoding="UTF-8" standalone="no"?>
<!DOCTYPE svg PUBLIC "-//W3C//DTD SVG 1.1//EN"
 "http://www.w3.org/Graphics/SVG/1.1/DTD/svg11.dtd">
<!-- Generated by graphviz version 2.26.3 (20100126.1600)
 -->
<!-- Title: controllers_diagram Pages: 1 -->
<svg width="729pt" height="565pt"
 viewBox="0.00 0.00 729.00 565.00" xmlns="http://www.w3.org/2000/svg" xmlns:xlink="http://www.w3.org/1999/xlink">
<g id="graph1" class="graph" transform="scale(1 1) rotate(0) translate(4 561)">
<title>controllers_diagram</title>
<polygon fill="white" stroke="white" points="-4,5 -4,-561 726,-561 726,5 -4,5"/>
<!-- _diagram_info -->
<g id="node1" class="node"><title>_diagram_info</title>
<text text-anchor="start" x="373" y="-456.3" font-family="Times Roman,serif" font-size="13.00">Controllers diagram</text>
<text text-anchor="start" x="373" y="-439.3" font-family="Times Roman,serif" font-size="13.00">Date: Dec 03 2014 &#45; 18:30</text>
<text text-anchor="start" x="373" y="-422.3" font-family="Times Roman,serif" font-size="13.00">Migration version: 20141129081043</text>
<text text-anchor="start" x="373" y="-405.3" font-family="Times Roman,serif" font-size="13.00">Generated by RailRoady 1.2.0</text>
<text text-anchor="start" x="373" y="-388.3" font-family="Times Roman,serif" font-size="13.00">http://railroady.prestonlee.com</text>
</g>
<!-- ApplicationController -->
<g id="node2" class="node"><title>ApplicationController</title>
<ellipse fill="none" stroke="black" cx="157" cy="-327.5" rx="113.844" ry="18.3848"/>
<text text-anchor="middle" x="157" y="-323.9" font-family="Times Roman,serif" font-size="14.00">ApplicationController</text>
</g>
<!-- AppointmentsController -->
<g id="node3" class="node"><title>AppointmentsController</title>
<ellipse fill="none" stroke="black" cx="591.5" cy="-257.5" rx="128.193" ry="18.3848"/>
<text text-anchor="middle" x="591.5" y="-253.9" font-family="Times Roman,serif" font-size="14.00">AppointmentsController</text>
</g>
<!-- DiagnosticsController -->
<g id="node4" class="node"><title>DiagnosticsController</title>
<ellipse fill="none" stroke="black" cx="369" cy="-47.5" rx="115.966" ry="18.3848"/>
<text text-anchor="middle" x="369" y="-43.9" font-family="Times Roman,serif" font-size="14.00">DiagnosticsController</text>
</g>
<!-- EmployeesController -->
<g id="node5" class="node"><title>EmployeesController</title>
<ellipse fill="none" stroke="black" cx="603.5" cy="-523.5" rx="111.93" ry="18.3848"/>
<text text-anchor="middle" x="603.5" y="-519.9" font-family="Times Roman,serif" font-size="14.00">EmployeesController</text>
</g>
<!-- InsurancesController -->
<g id="node6" class="node"><title>InsurancesController</title>
<ellipse fill="none" stroke="black" cx="352" cy="-537.5" rx="113.137" ry="18.3848"/>
<text text-anchor="middle" x="352" y="-533.9" font-family="Times Roman,serif" font-size="14.00">InsurancesController</text>
</g>
<!-- PatientsController -->
<g id="node7" class="node"><title>PatientsController</title>
<ellipse fill="none" stroke="black" cx="129.5" cy="-117.5" rx="99.9096" ry="18.3848"/>
<text text-anchor="middle" x="129.5" y="-113.9" font-family="Times Roman,serif" font-size="14.00">PatientsController</text>
</g>
<!-- PhysiciansController -->
<g id="node8" class="node"><title>PhysiciansController</title>
<ellipse fill="none" stroke="black" cx="112" cy="-187.5" rx="111.016" ry="18.3848"/>
<text text-anchor="middle" x="112" y="-183.9" font-family="Times Roman,serif" font-size="14.00">PhysiciansController</text>
</g>
<!-- StatesController -->
<g id="node9" class="node"><title>StatesController</title>
<ellipse fill="none" stroke="black" cx="121" cy="-537.5" rx="91.9239" ry="18.3848"/>
<text text-anchor="middle" x="121" y="-533.9" font-family="Times Roman,serif" font-size="14.00">StatesController</text>
</g>
<!-- Users::ConfirmationsController -->
<g id="node10" class="node"><title>Users::ConfirmationsController</title>
<ellipse fill="none" stroke="black" cx="457" cy="-327.5" rx="161.927" ry="18.3848"/>
<text text-anchor="middle" x="457" y="-323.9" font-family="Times Roman,serif" font-size="14.00">Users::ConfirmationsController</text>
</g>
<!-- Users::OmniauthCallbacksController -->
<g id="node11" class="node"><title>Users::OmniauthCallbacksController</title>
<ellipse fill="none" stroke="black" cx="245" cy="-257.5" rx="188.09" ry="18.3848"/>
<text text-anchor="middle" x="245" y="-253.9" font-family="Times Roman,serif" font-size="14.00">Users::OmniauthCallbacksController</text>
</g>
<!-- Users::PasswordsController -->
<g id="node12" class="node"><title>Users::PasswordsController</title>
<ellipse fill="none" stroke="black" cx="398" cy="-117.5" rx="144.957" ry="18.3848"/>
<text text-anchor="middle" x="398" y="-113.9" font-family="Times Roman,serif" font-size="14.00">Users::PasswordsController</text>
</g>
<!-- Users::RegistrationsController -->
<g id="node13" class="node"><title>Users::RegistrationsController</title>
<ellipse fill="none" stroke="black" cx="410.5" cy="-187.5" rx="157.184" ry="18.3848"/>
<text text-anchor="middle" x="410.5" y="-183.9" font-family="Times Roman,serif" font-size="14.00">Users::RegistrationsController</text>
</g>
<!-- Users::SessionsController -->
<g id="node14" class="node"><title>Users::SessionsController</title>
<ellipse fill="none" stroke="black" cx="206" cy="-467.5" rx="135.057" ry="18.3848"/>
<text text-anchor="middle" x="206" y="-463.9" font-family="Times Roman,serif" font-size="14.00">Users::SessionsController</text>
</g>
<!-- Users::UnlocksController -->
<g id="node15" class="node"><title>Users::UnlocksController</title>
<ellipse fill="none" stroke="black" cx="202.5" cy="-397.5" rx="131.022" ry="18.3848"/>
<text text-anchor="middle" x="202.5" y="-393.9" font-family="Times Roman,serif" font-size="14.00">Users::UnlocksController</text>
</g>
<!-- UsersController -->
<g id="node16" class="node"><title>UsersController</title>
<ellipse fill="none" stroke="black" cx="606.5" cy="-19.5" rx="87.1802" ry="18.3848"/>
<text text-anchor="middle" x="606.5" y="-15.9" font-family="Times Roman,serif" font-size="14.00">UsersController</text>
</g>
<!-- VisitorsController -->
<g id="node17" class="node"><title>VisitorsController</title>
<ellipse fill="none" stroke="black" cx="112" cy="-47.5" rx="96.8736" ry="18.3848"/>
<text text-anchor="middle" x="112" y="-43.9" font-family="Times Roman,serif" font-size="14.00">VisitorsController</text>
</g>
</g>
</svg>
