<?xml version="1.0" encoding="UTF-8" standalone="no"?>
<!DOCTYPE svg PUBLIC "-//W3C//DTD SVG 1.1//EN"
 "http://www.w3.org/Graphics/SVG/1.1/DTD/svg11.dtd">
<!-- Generated by graphviz version 2.26.3 (20100126.1600)
 -->
<!-- Title: models_diagram Pages: 1 -->
<svg width="632pt" height="324pt"
 viewBox="0.00 0.00 632.00 324.00" xmlns="http://www.w3.org/2000/svg" xmlns:xlink="http://www.w3.org/1999/xlink">
<g id="graph1" class="graph" transform="scale(1 1) rotate(0) translate(4 320)">
<title>models_diagram</title>
<polygon fill="white" stroke="white" points="-4,5 -4,-320 629,-320 629,5 -4,5"/>
<!-- _diagram_info -->
<g id="node1" class="node"><title>_diagram_info</title>
<text text-anchor="start" x="8" y="-299.8" font-family="Times Roman,serif" font-size="13.00">Models diagram</text>
<text text-anchor="start" x="8" y="-282.8" font-family="Times Roman,serif" font-size="13.00">Date: Dec 03 2014 &#45; 18:30</text>
<text text-anchor="start" x="8" y="-265.8" font-family="Times Roman,serif" font-size="13.00">Migration version: 20141129081043</text>
<text text-anchor="start" x="8" y="-248.8" font-family="Times Roman,serif" font-size="13.00">Generated by RailRoady 1.2.0</text>
<text text-anchor="start" x="8" y="-231.8" font-family="Times Roman,serif" font-size="13.00">http://railroady.prestonlee.com</text>
</g>
<!-- Appointment -->
<g id="node2" class="node"><title>Appointment</title>
<ellipse fill="none" stroke="black" cx="304" cy="-19" rx="74.9533" ry="18.3848"/>
<text text-anchor="middle" x="304" y="-15.4" font-family="Times Roman,serif" font-size="14.00">Appointment</text>
</g>
<!-- Diagnostic -->
<g id="node3" class="node"><title>Diagnostic</title>
<ellipse fill="none" stroke="black" cx="561" cy="-269" rx="62.9325" ry="18.3848"/>
<text text-anchor="middle" x="561" y="-265.4" font-family="Times Roman,serif" font-size="14.00">Diagnostic</text>
</g>
<!-- Employee -->
<g id="node4" class="node"><title>Employee</title>
<ellipse fill="none" stroke="black" cx="560" cy="-93" rx="58.1882" ry="18.3848"/>
<text text-anchor="middle" x="560" y="-89.4" font-family="Times Roman,serif" font-size="14.00">Employee</text>
</g>
<!-- User -->
<g id="node9" class="node"><title>User</title>
<ellipse fill="none" stroke="black" cx="431" cy="-19" rx="33.9411" ry="18.3848"/>
<text text-anchor="middle" x="431" y="-15.4" font-family="Times Roman,serif" font-size="14.00">User</text>
</g>
<!-- Employee&#45;&gt;User -->
<g id="edge2" class="edge"><title>Employee&#45;&gt;User</title>
<path fill="none" stroke="#fc4286" d="M524.667,-72.7313C504.867,-61.3733 480.422,-47.3507 461.47,-36.4789"/>
<ellipse fill="none" stroke="#fc4286" cx="528.221" cy="-74.77" rx="4.00002" ry="4.00002"/>
<ellipse fill="#fc4286" stroke="#fc4286" cx="457.966" cy="-34.469" rx="4.00002" ry="4.00002"/>
</g>
<!-- Insurance -->
<g id="node5" class="node"><title>Insurance</title>
<ellipse fill="none" stroke="black" cx="327" cy="-269" rx="58.8978" ry="18.3848"/>
<text text-anchor="middle" x="327" y="-265.4" font-family="Times Roman,serif" font-size="14.00">Insurance</text>
</g>
<!-- Patient -->
<g id="node6" class="node"><title>Patient</title>
<ellipse fill="none" stroke="black" cx="342" cy="-167" rx="46.1672" ry="18.3848"/>
<text text-anchor="middle" x="342" y="-163.4" font-family="Times Roman,serif" font-size="14.00">Patient</text>
</g>
<!-- Insurance&#45;&gt;Patient -->
<g id="edge4" class="edge"><title>Insurance&#45;&gt;Patient</title>
<path fill="none" stroke="#c0a699" d="M330.968,-242.015C333.074,-227.696 335.661,-210.103 337.801,-195.555"/>
<ellipse fill="none" stroke="#c0a699" cx="330.333" cy="-246.334" rx="4.00001" ry="4.00001"/>
<polygon fill="#c0a699" stroke="#c0a699" points="337.811,-195.483 343.718,-186.245 338.539,-190.537 339.266,-185.59 339.266,-185.59 339.266,-185.59 338.539,-190.537 334.814,-184.935 337.811,-195.483 337.811,-195.483"/>
</g>
<!-- Patient&#45;&gt;Appointment -->
<g id="edge10" class="edge"><title>Patient&#45;&gt;Appointment</title>
<path fill="none" stroke="#2031dc" d="M335.249,-140.707C328.538,-114.568 318.272,-74.5869 311.356,-47.6515"/>
<ellipse fill="none" stroke="#2031dc" cx="336.269" cy="-144.681" rx="4.00001" ry="4.00001"/>
<polygon fill="#2031dc" stroke="#2031dc" points="311.283,-47.3633 313.154,-36.5584 310.039,-42.5204 308.796,-37.6775 308.796,-37.6775 308.796,-37.6775 310.039,-42.5204 304.437,-38.7966 311.283,-47.3633 311.283,-47.3633"/>
</g>
<!-- Physician -->
<g id="node7" class="node"><title>Physician</title>
<ellipse fill="none" stroke="black" cx="427" cy="-93" rx="56.7776" ry="18.3848"/>
<text text-anchor="middle" x="427" y="-89.4" font-family="Times Roman,serif" font-size="14.00">Physician</text>
</g>
<!-- Patient&#45;&gt;Physician -->
<g id="edge8" class="edge"><title>Patient&#45;&gt;Physician</title>
<path fill="none" stroke="#64fd87" d="M369.385,-143.159C378.889,-134.885 389.552,-125.602 399.097,-117.292"/>
<polygon fill="#64fd87" stroke="#64fd87" points="369.257,-143.271 358.76,-146.443 365.485,-146.554 361.714,-149.837 361.714,-149.837 361.714,-149.837 365.485,-146.554 364.669,-153.231 369.257,-143.271 369.257,-143.271"/>
<polygon fill="#64fd87" stroke="#64fd87" points="399.26,-117.15 409.757,-113.978 403.031,-113.867 406.802,-110.584 406.802,-110.584 406.802,-110.584 403.031,-113.867 403.848,-107.19 399.26,-117.15 399.26,-117.15"/>
</g>
<!-- Patient&#45;&gt;User -->
<g id="edge6" class="edge"><title>Patient&#45;&gt;User</title>
<path fill="none" stroke="#f2a456" d="M342.634,-139.939C344.205,-120.343 348.706,-93.909 361,-74 370.404,-58.7703 385.626,-46.064 399.476,-36.7148"/>
<ellipse fill="none" stroke="#f2a456" cx="342.366" cy="-144.154" rx="4" ry="4"/>
<ellipse fill="#f2a456" stroke="#f2a456" cx="403.198" cy="-34.3084" rx="4.00002" ry="4.00002"/>
</g>
<!-- Physician&#45;&gt;Appointment -->
<g id="edge14" class="edge"><title>Physician&#45;&gt;Appointment</title>
<path fill="none" stroke="#0cbf18" d="M392.668,-72.3452C376.674,-62.7227 357.612,-51.2542 341.267,-41.421"/>
<ellipse fill="none" stroke="#0cbf18" cx="396.275" cy="-74.5149" rx="4.00002" ry="4.00002"/>
<polygon fill="#0cbf18" stroke="#0cbf18" points="341.072,-41.3038 334.824,-32.2926 336.788,-38.7262 332.504,-36.1485 332.504,-36.1485 332.504,-36.1485 336.788,-38.7262 330.184,-40.0045 341.072,-41.3038 341.072,-41.3038"/>
</g>
<!-- Physician&#45;&gt;User -->
<g id="edge12" class="edge"><title>Physician&#45;&gt;User</title>
<path fill="none" stroke="#cc21bd" d="M428.443,-66.309C428.803,-59.6354 429.191,-52.4756 429.552,-45.7969"/>
<ellipse fill="none" stroke="#cc21bd" cx="428.225" cy="-70.3325" rx="4" ry="4"/>
<ellipse fill="#cc21bd" stroke="#cc21bd" cx="429.775" cy="-41.6615" rx="4" ry="4"/>
</g>
<!-- State -->
<g id="node8" class="node"><title>State</title>
<ellipse fill="none" stroke="black" cx="442" cy="-269" rx="38.1838" ry="18.3848"/>
<text text-anchor="middle" x="442" y="-265.4" font-family="Times Roman,serif" font-size="14.00">State</text>
</g>
<!-- State&#45;&gt;Employee -->
<g id="edge16" class="edge"><title>State&#45;&gt;Employee</title>
<path fill="none" stroke="#718089" d="M458.486,-244.411C480.525,-211.539 519.441,-153.495 542.151,-119.622"/>
<ellipse fill="none" stroke="#718089" cx="456.191" cy="-247.833" rx="4.00002" ry="4.00002"/>
<polygon fill="#718089" stroke="#718089" points="542.259,-119.461 551.566,-113.661 545.044,-115.308 547.828,-111.155 547.828,-111.155 547.828,-111.155 545.044,-115.308 544.09,-108.649 542.259,-119.461 542.259,-119.461"/>
</g>
<!-- State&#45;&gt;Patient -->
<g id="edge18" class="edge"><title>State&#45;&gt;Patient</title>
<path fill="none" stroke="#04c389" d="M419.589,-246.141C403.748,-229.983 382.529,-208.339 366.285,-191.77"/>
<ellipse fill="none" stroke="#04c389" cx="422.687" cy="-249.3" rx="4.00002" ry="4.00002"/>
<polygon fill="#04c389" stroke="#04c389" points="366.209,-191.693 362.422,-181.402 362.709,-188.123 359.208,-184.553 359.208,-184.553 359.208,-184.553 362.709,-188.123 355.995,-187.703 366.209,-191.693 366.209,-191.693"/>
</g>
<!-- State&#45;&gt;Physician -->
<g id="edge20" class="edge"><title>State&#45;&gt;Physician</title>
<path fill="none" stroke="#048deb" d="M439.731,-242.381C436.957,-209.832 432.281,-154.961 429.434,-121.555"/>
<ellipse fill="none" stroke="#048deb" cx="440.083" cy="-246.512" rx="4" ry="4"/>
<polygon fill="#048deb" stroke="#048deb" points="429.428,-121.482 433.062,-111.136 429.003,-116.501 428.578,-111.519 428.578,-111.519 428.578,-111.519 429.003,-116.501 424.095,-111.901 429.428,-121.482 429.428,-121.482"/>
</g>
</g>
</svg>
